{   
  "id": "exandria-fvtt",
  "title": "Exandria - A Resource Trove",   
  "description": "A module that brings all the content created for the world of Exandria by discord.gg/ZK42rTt into foundry",   
  "version": "0.2.3",
	"library": "false",
	"authors": [
    {
      "name": "NekroDarkmoon",
      "url": "https://gitlab.com/Zuhkov/exandriafvtt/",
      "discord": "Nekro Darkmoon#2995",
      "ko-fi": "https://ko-fi.com/nekrodarkmoon"
    }
  ],
	"compatibility": {
		"minimum": 10,
    "verified": 10.285,
    "maximum": 11
	},
	"relationships": {
    "systems": [{
      "id": "dnd5e",
      "type": "system"
    }]},
  "packs": [
  	{
		"name": "npcs",
		"label": "Exandria NPCs",
		"path": "packs/npcs.db",
		"type": "Actor",
		"system": "dnd5e",
		"module": "exandria"
  	},
  	{
		"name": "magic-items",
		"label": "Exandria Magic Items",
		"path": "packs/magic-items.db",
		"type": "Item",
		"system": "dnd5e",
		"module": "exandria"
  	},  
  	{
		"name": "maps",
		"label": "Exandria Maps",
		"path": "packs/maps.db",
		"type": "Scene",
		"module": "exandria"
  	},
	{
		"name": "locations",
		"label": "Exandria Locations",
		"path": "packs/locations.db",
		"type": "JournalEntry",
		"module": "exandria"
	},
	{
		"name": "extras",
		"label": "Exandria Extras",
		"path": "packs/extras.db",
		"type": "JournalEntry",
		"module": "exandria"	
	},
	{
		"name": "tables",
		"label": "Exandria Tables",
		"path": "packs/tables.db",
		"type": "RollTable",
		"module": "exandria"
	},
	{
		"name": "misc",
		"label": " Exandria Misc",
		"path": "packs/misc.db",
		"type": "JournalEntry",
		"module": "exandria"
	}
  ],
  "dependecies": [
    {
      "name": "fxmaster",
      "manifest": "https://gitlab.com/mesfoliesludiques/foundryvtt-fxmaster"
    }
  ],
  "languages": [
    {
      "lang": "en",
      "name": "English",
      "path": "lang/en.json"
    }
  ],
  "esmodules": [
	  "./index.js"
  ],
  "scripts": [],
  "manifest": "https://gitlab.com/Zuhkov/exandriafvtt/-/raw/main/module.json",
  "url": "https://gitlab.com/Zuhkov/exandriafvtt/",
  "download": "https://gitlab.com/Zuhkov/exandriafvtt/-/archive/main/exandriafvtt-main.zip"
 }
